B+
B
B+
C
B+
A
B+
B+
B+
A-
B+
B+
B+
B+
B+
B+
B+
A
B+
B+
B+
A
A-
B+
A
B+
B+
B+
B
B+
B+
B+
B+
B+
B+
B+
D+
B+
A
C
A
A
B-
A
B+
A
A
B+
B-
A-
B+
A
B+
B+
A-
A
A
A
A-
B+
C
B+
B-
B-
D+
C
D+
B-
B-
B-
B+
B-
C+
A
B+
B+
B+
B+
B+
D+
B+
A
D+
B-
D+
B+
B+
B+
D+
B+
B+
B+
B-
D+
A
B+
B+
B+
A
A
C
A
B+
B+
A
B-
B+
A
B+
A-
B-
B+
D+
D+
D+
B+
B+
B+
B
B+
B-
B+
C+
B+
B+
D+
D+
A
A
B+
A
B+
B+
A
B+
B
B-
C
B-
B+
A
B-
B+
B+
A-
B+
A
B+
A
B+
B+
A-
B+
C
B+
B+
B+
B+
B+
A
A
A
B+
B+
B+
B-
B+
B+
C+
B
D+
C+
B+
B+
B+
C
A
D+
B
B+
F
B+
B+
A
A
B-
A
B+
A
B+
A
B-
B+
B-
A
C+
B+
B+
B
A
B+
B+
A
A
B+
A
A-
B+
A
A
B+
A
B+
B
B-
B+
A
B+
A
B+
D+
A-
B+
B+
A
B+
B+
B-
A
B+
B+
A
A
D+
B
B+
B+
C
A
A
D+
A
B+
B-
A
C+
A
B+
B+
A-
C+
D+
B+
B+
D+
B+
B+
C+
